Cuadernillos de trabajo | Uso responsable de la IA para las políticas públicas: Manual de ciencia de datos
…
Peor aún, el sesgo es mayor para hogares de menores ingresos (las predicciones son altas), lo cual puede producir una focalización mediocre si buscamos identificar hogares de menores ingresos.

Muestras naturales: comparaciones causales

Este ejemplo está tomado de (Hastie, Tibshirani, and Friedman 2017) y (Rossouw et al. 1983). Se consideran los siguientes datos, donde el objetivo es predecir enfermedad del corazón (chd)12:

sa_heart <- read_csv("datos/sa-heart.csv")
sa_heart <- sa_heart %>% 
  rename(presion_arterial = sbp, tabaco = tobacco, colesterol_ldl = ldl, 
         adiposidad = adiposity, historia_fam = famhist, tipo_a = typea, obesidad = obesity, 
         edad = age, enf_coronaria = chd)
sa_heart

## # A tibble: 462 × 10
##    presion…¹ tabaco coles…² adipo…³ histo…⁴ tipo_a obesi…⁵ alcohol  edad enf_c…⁶
##        <dbl>  <dbl>   <dbl>   <dbl> <chr>    <dbl>   <dbl>   <dbl> <dbl>   <dbl>
##  1       160  12       5.73    23.1 Present     49    25.3   97.2     52       1
##  2       144   0.01    4.41    28.6 Absent      55    28.9    2.06    63       1
##  3       118   0.08    3.48    32.3 Present     52    29.1    3.81    46       0
##  4       170   7.5     6.41    38.0 Present     51    32.0   24.3     58       1
##  5       134  13.6     3.5     27.8 Present     60    26.0   57.3     49       1
##  6       132   6.2     6.47    36.2 Present     62    30.8   14.1     45       0
##  7       142   4.05    3.38    16.2 Absent      59    20.8    2.62    38       0
##  8       114   4.08    4.59    14.6 Present     62    23.1    6.72    58       1
##  9       114   0       3.83    19.4 Present     49    24.9    2.49    29       0
## 10       132   0       5.8     31.0 Present     69    30.1    0       53       1
## # … with 452 more rows, and abbreviated variable names ¹​presion_arterial,
## #   ²​colesterol_ldl, ³​adiposidad, ⁴​historia_fam, ⁵​obesidad, ⁶​enf_coronaria
## # ℹ Use `print(n = ...)` to see more rows
…
