Casos de estudio
…
Peor an, el sesgo es mayor para hogares de menores ingresos, lo cual puede producir una focalizacin mediocre si buscamos identificar hogares de menores ingresos.

1.2.2 Muestras naturales: comparaciones causales

Este ejemplo est tomado de (Hastie, Tibshirani, and Friedman (2017) y Rossouw et al. (1983)). Consideramos los siguientes datos donde queremos predecir enfermedad del corazn (chd) : (Rossouw et al. (1983)):

sa_heart <- read_csv("datos/sa-heart.csv")
sa_heart <- sa_heart %>% 
  rename(presion_arterial = sbp, tabaco = tobacco, colesterol_ldl = ldl, 
         adiposidad = adiposity, historia_fam = famhist, tipo_a = typea, obesidad = obesity, 
         edad = age, enf_coronaria = chd)
sa_heart

## # A tibble: 462 x 10
##    presion_arterial tabaco colesterol_ldl adiposidad historia_fam tipo_a
##               <dbl>  <dbl>          <dbl>      <dbl> <chr>         <dbl>
##  1              160  12              5.73       23.1 Present          49
##  2              144   0.01           4.41       28.6 Absent           55
##  3              118   0.08           3.48       32.3 Present          52
##  4              170   7.5            6.41       38.0 Present          51
##  5              134  13.6            3.5        27.8 Present          60
##  6              132   6.2            6.47       36.2 Present          62
##  7              142   4.05           3.38       16.2 Absent           59
##  8              114   4.08           4.59       14.6 Present          62
##  9              114   0              3.83       19.4 Present          49
## 10              132   0              5.8        31.0 Present          69
## #  with 452 more rows, and 4 more variables: obesidad <dbl>, alcohol <dbl>,
## #   edad <dbl>, enf_coronaria <dbl>
…
